{
    "key": "group_59234f7670c0e",
    "title": "Testimonial Grid",
    "fields": [
        {
            "key": "field_5923631d7c7e0",
            "label": "Rows",
            "name": "testimonial_grid_rows",
            "type": "repeater",
            "instructions": "",
            "required": 0,
            "conditional_logic": 0,
            "wrapper": {
                "width": "",
                "class": "",
                "id": ""
            },
            "collapsed": "",
            "min": 0,
            "max": 2,
            "layout": "block",
            "button_label": "",
            "sub_fields": [
                {
                    "key": "field_592350aa0679d",
                    "label": "Layout",
                    "name": "row_layout",
                    "type": "radio",
                    "instructions": "",
                    "required": 0,
                    "conditional_logic": 0,
                    "wrapper": {
                        "width": "",
                        "class": "",
                        "id": ""
                    },
                    "choices": {
                        "2col": "2 columns (1 Large block, 2 Small stacked blocks)",
                        "3col": "3 columns (3 equal size blocks)"
                    },
                    "allow_null": 0,
                    "other_choice": 0,
                    "save_other_choice": 0,
                    "default_value": "",
                    "layout": "vertical",
                    "return_format": "value"
                },
                {
                    "key": "field_59234f890679c",
                    "label": "Content",
                    "name": "row_content",
                    "type": "flexible_content",
                    "instructions": "Add 3 grid blocks below. The first block will appear in the left column. If the layout uses stacked blocks, the second block will be on top.",
                    "required": 0,
                    "conditional_logic": 0,
                    "wrapper": {
                        "width": "",
                        "class": "",
                        "id": ""
                    },
                    "button_label": "Add Grid Block",
                    "min": 3,
                    "max": 3,
                    "layouts": [
                        {
                            "key": "59234faeec386",
                            "name": "grid_block",
                            "label": "Grid Block",
                            "display": "block",
                            "sub_fields": [
                                {
                                    "key": "field_592352150679f",
                                    "label": "Display",
                                    "name": "display",
                                    "type": "radio",
                                    "instructions": "",
                                    "required": 0,
                                    "conditional_logic": 0,
                                    "wrapper": {
                                        "width": "",
                                        "class": "",
                                        "id": ""
                                    },
                                    "choices": {
                                        "testimonial": "Testimonial",
                                        "image": "Image",
                                        "video": "Video"
                                    },
                                    "allow_null": 0,
                                    "other_choice": 0,
                                    "save_other_choice": 0,
                                    "default_value": "",
                                    "layout": "vertical",
                                    "return_format": "value"
                                },
                                {
                                    "key": "field_5923595fc8a8c",
                                    "label": "Background Color",
                                    "name": "background_color",
                                    "type": "select",
                                    "instructions": "",
                                    "required": 0,
                                    "conditional_logic": [
                                        [
                                            {
                                                "field": "field_592352150679f",
                                                "operator": "==",
                                                "value": "testimonial"
                                            }
                                        ]
                                    ],
                                    "wrapper": {
                                        "width": "",
                                        "class": "",
                                        "id": ""
                                    },
                                    "choices": {
                                        "light-gray": "Light Gray",
                                        "medium-gray": "Medium Gray",
                                        "dark-gray": "Dark Gray"
                                    },
                                    "default_value": [
                                        "medium-gray"
                                    ],
                                    "allow_null": 0,
                                    "multiple": 0,
                                    "ui": 0,
                                    "ajax": 0,
                                    "return_format": "value",
                                    "placeholder": ""
                                },
                                {
                                    "key": "field_5923526f067a0",
                                    "label": "Testimonial",
                                    "name": "testimonial",
                                    "type": "wysiwyg",
                                    "instructions": "",
                                    "required": 0,
                                    "conditional_logic": [
                                        [
                                            {
                                                "field": "field_592352150679f",
                                                "operator": "==",
                                                "value": "testimonial"
                                            }
                                        ]
                                    ],
                                    "wrapper": {
                                        "width": "",
                                        "class": "",
                                        "id": ""
                                    },
                                    "default_value": "",
                                    "tabs": "all",
                                    "toolbar": "full",
                                    "media_upload": 0,
                                    "delay": 0
                                },
                                {
                                    "key": "field_5923528a067a1",
                                    "label": "Author",
                                    "name": "testimonial_author",
                                    "type": "text",
                                    "instructions": "",
                                    "required": 0,
                                    "conditional_logic": [
                                        [
                                            {
                                                "field": "field_592352150679f",
                                                "operator": "==",
                                                "value": "testimonial"
                                            }
                                        ]
                                    ],
                                    "wrapper": {
                                        "width": "",
                                        "class": "",
                                        "id": ""
                                    },
                                    "default_value": "",
                                    "placeholder": "",
                                    "prepend": "",
                                    "append": "",
                                    "maxlength": ""
                                },
                                {
                                    "key": "field_592352b7067a2",
                                    "label": "Image",
                                    "name": "image",
                                    "type": "image",
                                    "instructions": "",
                                    "required": 0,
                                    "conditional_logic": [
                                        [
                                            {
                                                "field": "field_592352150679f",
                                                "operator": "==",
                                                "value": "image"
                                            }
                                        ]
                                    ],
                                    "wrapper": {
                                        "width": "",
                                        "class": "",
                                        "id": ""
                                    },
                                    "return_format": "array",
                                    "preview_size": "thumbnail",
                                    "library": "all",
                                    "min_width": "",
                                    "min_height": "",
                                    "min_size": "",
                                    "max_width": "",
                                    "max_height": "",
                                    "max_size": "",
                                    "mime_types": ""
                                },
                                {
                                    "key": "field_5a54f75005e69",
                                    "label": "Video Screenshot",
                                    "name": "screenshot",
                                    "type": "image",
                                    "instructions": "Please upload an appropriate screenshot at videos will not automatically play on mobile.",
                                    "required": 1,
                                    "conditional_logic": [
                                        [
                                            {
                                                "field": "field_592352150679f",
                                                "operator": "==",
                                                "value": "video"
                                            }
                                        ]
                                    ],
                                    "wrapper": {
                                        "width": "",
                                        "class": "",
                                        "id": ""
                                    },
                                    "return_format": "url",
                                    "preview_size": "thumbnail",
                                    "library": "all",
                                    "min_width": "",
                                    "min_height": "",
                                    "min_size": "",
                                    "max_width": "",
                                    "max_height": "",
                                    "max_size": "",
                                    "mime_types": ""
                                },
                                {
                                    "key": "field_5a54f77405e6a",
                                    "label": "Video",
                                    "name": "video",
                                    "type": "flexible_content",
                                    "instructions": "Please add at least one of the three file formats: .mp4, .ogg, or .webm. Adding all three ensure cross-browser compatibility. To convert your file to any of these formats, please visit https:\/\/www.online-convert.com\/ or a similar site.\r\n\r\nLooped video files should contain no audio and should only ideally be only a few seconds long.",
                                    "required": 1,
                                    "conditional_logic": [
                                        [
                                            {
                                                "field": "field_592352150679f",
                                                "operator": "==",
                                                "value": "video"
                                            }
                                        ]
                                    ],
                                    "wrapper": {
                                        "width": "",
                                        "class": "",
                                        "id": ""
                                    },
                                    "button_label": "Add Video File Type",
                                    "min": 1,
                                    "max": 3,
                                    "layouts": [
                                        {
                                            "key": "5a54f7872aa08",
                                            "name": "mp4_file",
                                            "label": "MP4 File",
                                            "display": "row",
                                            "sub_fields": [
                                                {
                                                    "key": "field_5a54f79a05e6b",
                                                    "label": "MP4 File",
                                                    "name": "mp4_file",
                                                    "type": "file",
                                                    "instructions": "",
                                                    "required": 0,
                                                    "conditional_logic": 0,
                                                    "wrapper": {
                                                        "width": "",
                                                        "class": "",
                                                        "id": ""
                                                    },
                                                    "return_format": "array",
                                                    "library": "all",
                                                    "min_size": "",
                                                    "max_size": "",
                                                    "mime_types": "mp4"
                                                }
                                            ],
                                            "min": "",
                                            "max": ""
                                        },
                                        {
                                            "key": "5a54f83a05e6e",
                                            "name": "ogg_file",
                                            "label": "OGG File",
                                            "display": "row",
                                            "sub_fields": [
                                                {
                                                    "key": "field_5a54f84905e6f",
                                                    "label": "OGG File",
                                                    "name": "ogg_file",
                                                    "type": "file",
                                                    "instructions": "",
                                                    "required": 0,
                                                    "conditional_logic": 0,
                                                    "wrapper": {
                                                        "width": "",
                                                        "class": "",
                                                        "id": ""
                                                    },
                                                    "return_format": "array",
                                                    "library": "all",
                                                    "min_size": "",
                                                    "max_size": "",
                                                    "mime_types": "ogg"
                                                }
                                            ],
                                            "min": "",
                                            "max": ""
                                        },
                                        {
                                            "key": "5a54f87e05e71",
                                            "name": "webm_file",
                                            "label": "WEBM File",
                                            "display": "row",
                                            "sub_fields": [
                                                {
                                                    "key": "field_5a54f88905e72",
                                                    "label": "WEBM File",
                                                    "name": "webm_file",
                                                    "type": "file",
                                                    "instructions": "",
                                                    "required": 0,
                                                    "conditional_logic": 0,
                                                    "wrapper": {
                                                        "width": "",
                                                        "class": "",
                                                        "id": ""
                                                    },
                                                    "return_format": "array",
                                                    "library": "all",
                                                    "min_size": "",
                                                    "max_size": "",
                                                    "mime_types": "webm"
                                                }
                                            ],
                                            "min": "",
                                            "max": ""
                                        }
                                    ]
                                }
                            ],
                            "min": "",
                            "max": ""
                        }
                    ]
                }
            ]
        }
    ],
    "location": [
        [
            {
                "param": "titan_component",
                "operator": "==",
                "value": "testimonial-grid"
            }
        ]
    ],
    "menu_order": 0,
    "position": "normal",
    "style": "default",
    "label_placement": "top",
    "instruction_placement": "label",
    "hide_on_screen": "",
    "active": 1,
    "description": ""
}
