{
    "key": "group_569ed44ec73ed",
    "title": "Advanced",
    "fields": [
        {
            "default_value": "",
            "min": "",
            "max": "",
            "step": "",
            "placeholder": "",
            "prepend": "",
            "append": "px",
            "key": "field_57c4a44575dbb",
            "label": "Margin Top",
            "name": "margin_top",
            "type": "number",
            "instructions": "",
            "required": 0,
            "conditional_logic": 0,
            "wrapper": {
                "width": "50",
                "class": "",
                "id": ""
            }
        },
        {
            "default_value": "",
            "min": "",
            "max": "",
            "step": "",
            "placeholder": "",
            "prepend": "",
            "append": "px",
            "key": "field_57c4a47e75dbc",
            "label": "Margin Bottom",
            "name": "margin_bottom",
            "type": "number",
            "instructions": "",
            "required": 0,
            "conditional_logic": 0,
            "wrapper": {
                "width": "50",
                "class": "",
                "id": ""
            }
        },
        {
            "default_value": "",
            "min": "",
            "max": "",
            "step": "",
            "placeholder": "",
            "prepend": "",
            "append": "px",
            "key": "field_57c4a48c75dbd",
            "label": "Padding Top",
            "name": "padding_top",
            "type": "number",
            "instructions": "",
            "required": 0,
            "conditional_logic": 0,
            "wrapper": {
                "width": "50",
                "class": "",
                "id": ""
            }
        },
        {
            "default_value": "",
            "min": "",
            "max": "",
            "step": "",
            "placeholder": "",
            "prepend": "",
            "append": "px",
            "key": "field_57c4a4a175dbe",
            "label": "Padding Bottom",
            "name": "padding_bottom",
            "type": "number",
            "instructions": "",
            "required": 0,
            "conditional_logic": 0,
            "wrapper": {
                "width": "50",
                "class": "",
                "id": ""
            }
        }
    ],
    "location": [
        [
            {
                "param": "post_type",
                "operator": "==",
                "value": "titan-nothing"
            }
        ]
    ],
    "menu_order": 0,
    "position": "normal",
    "style": "seamless",
    "label_placement": "top",
    "instruction_placement": "label",
    "hide_on_screen": "",
    "active": 0,
    "description": "",
    "modified": 1483648122
}
